<svg width="408" height="408" viewBox="0 0 408 408" fill="none" xmlns="http://www.w3.org/2000/svg">
<path fill-rule="evenodd" clip-rule="evenodd" d="M0 0V408H408V0H0ZM310.02 198.17V198.176C313.932 198.188 318.379 198.389 321.723 198.752C335.342 200.225 345.948 206.101 354.971 217.168C359.464 222.681 361.002 225.093 360.674 226.125C360.463 226.791 357.38 228.999 347.578 235.506C337.949 241.898 334.847 243.813 334.127 243.813C333.397 243.813 331.875 242.247 329.682 239.24C325.457 233.451 321.145 230.809 314.477 229.928C307.306 228.978 300.875 231.238 297.725 235.816C295.032 239.728 294.626 246.022 296.766 250.595C299.245 255.893 303.733 258.822 320.932 266.363C340.768 275.061 350.82 281.014 358.141 288.402C366.025 296.359 370.019 305.545 371.246 318.539C371.845 324.873 371.113 332.379 369.301 338.482C364.856 353.443 352.862 364.398 335.281 369.554C330.421 370.979 325.899 371.83 321.426 372.158C314.597 372.661 304.823 372.384 298.94 371.527C284.056 369.359 267.254 360.698 258.876 350.877C254.763 346.057 249.512 338.123 249.512 336.727C249.512 336.054 249.846 335.671 251.168 334.831C255.09 332.339 277.562 319.493 277.998 319.493C278.262 319.493 279.436 320.876 280.606 322.567C283.257 326.395 289.776 332.974 293.09 335.169C295.797 336.962 299.259 338.401 303.369 339.44C305.723 340.027 306.969 340.132 312.105 340.132C317.353 340.13 318.429 340.042 320.777 339.411C326.987 337.74 331.834 334.282 333.888 330.057C334.788 328.232 334.806 328.004 334.806 323.577V318.987L333.702 316.798C331.029 311.491 325.269 307.85 307.057 299.962C298.692 296.338 288.446 291.229 284.446 288.687C275.318 282.886 268.991 276.254 264.839 268.136C260.709 260.063 260.094 257.058 260.084 244.919C260.073 235.416 260.058 235.533 262.025 229.468C263.81 223.964 267.464 217.816 271.498 213.529C279.549 204.971 291.311 199.471 303.904 198.377C305.514 198.224 307.672 198.165 310.019 198.172L310.02 198.17ZM201.66 200.047H201.664C225.917 200.059 239.82 200.143 240.043 200.283C240.463 200.544 240.516 202.654 240.516 216.125V231.666L216.315 231.754L192.114 231.842V300.555C192.114 338.348 192.037 369.493 191.932 369.768C191.761 370.231 189.899 370.266 174.153 370.266H156.565L156.383 369.555C156.266 369.165 156.18 338.019 156.178 300.342L156.172 231.838L131.971 231.752L107.77 231.664V216.307C107.77 204.127 107.854 200.865 108.179 200.541C108.512 200.198 120.863 200.11 174.081 200.057C184.342 200.047 193.575 200.042 201.66 200.047Z" fill="#AC0085"/>
</svg>
