<svg width="270" height="306" viewBox="0 0 270 306" fill="none" xmlns="http://www.w3.org/2000/svg">
<path d="M135 247.52L204.19 228.31L213.54 124.61H90.4602L87.4002 90.1H216.6L220 56.27H50.0002L59.5202 158.44H176.65L172.74 202.3L135 212.5L97.2602 202.3L94.8802 174.08H60.8802L65.8102 228.31L135 247.52V247.52ZM0.190186 0H269.81L245.5 275.4L135 306L24.5002 275.4L0.190186 0V0Z" fill="#8900F4"/>
</svg>
